^C:\USERS\WOLFF\DOCUMENTS\VISUAL STUDIO 2013\PROJECTS\KNIGHTS TOUR 3\KNIGHTS TOUR 3\KNIGHTS TOUR 3.CPP|C:\USERS\WOLFF\DOCUMENTS\VISUAL STUDIO 2013\PROJECTS\KNIGHTS TOUR 3\KNIGHTS TOUR 3\MYTRY.CPP|C:\USERS\WOLFF\DOCUMENTS\VISUAL STUDIO 2013\PROJECTS\KNIGHTS TOUR 3\KNIGHTS TOUR 3\STDAFX.CPP
C:\USERS\WOLFF\DOCUMENTS\VISUAL STUDIO 2013\PROJECTS\KNIGHTS TOUR 3\KNIGHTS TOUR 3\DEBUG\VC120.PDB
C:\USERS\WOLFF\DOCUMENTS\VISUAL STUDIO 2013\PROJECTS\KNIGHTS TOUR 3\KNIGHTS TOUR 3\DEBUG\VC120.IDB
C:\USERS\WOLFF\DOCUMENTS\VISUAL STUDIO 2013\PROJECTS\KNIGHTS TOUR 3\KNIGHTS TOUR 3\DEBUG\KNIGHTS TOUR 3.OBJ
C:\USERS\WOLFF\DOCUMENTS\VISUAL STUDIO 2013\PROJECTS\KNIGHTS TOUR 3\KNIGHTS TOUR 3\DEBUG\MYTRY.OBJ
C:\USERS\WOLFF\DOCUMENTS\VISUAL STUDIO 2013\PROJECTS\KNIGHTS TOUR 3\KNIGHTS TOUR 3\DEBUG\STDAFX.OBJ
^C:\USERS\WOLFF\DOCUMENTS\VISUAL STUDIO 2013\PROJECTS\KNIGHTS TOUR 3\KNIGHTS TOUR 3\KNIGHTS TOUR 3.CPP
C:\USERS\WOLFF\DOCUMENTS\VISUAL STUDIO 2013\PROJECTS\KNIGHTS TOUR 3\KNIGHTS TOUR 3\DEBUG\VC120.PDB
C:\USERS\WOLFF\DOCUMENTS\VISUAL STUDIO 2013\PROJECTS\KNIGHTS TOUR 3\KNIGHTS TOUR 3\DEBUG\VC120.IDB
C:\USERS\WOLFF\DOCUMENTS\VISUAL STUDIO 2013\PROJECTS\KNIGHTS TOUR 3\KNIGHTS TOUR 3\DEBUG\KNIGHTS TOUR 3.OBJ
^C:\USERS\WOLFF\DOCUMENTS\VISUAL STUDIO 2013\PROJECTS\KNIGHTS TOUR 3\KNIGHTS TOUR 3\MYTRY.CPP
C:\USERS\WOLFF\DOCUMENTS\VISUAL STUDIO 2013\PROJECTS\KNIGHTS TOUR 3\KNIGHTS TOUR 3\DEBUG\VC120.PDB
^C:\USERS\WOLFF\DOCUMENTS\VISUAL STUDIO 2013\PROJECTS\KNIGHTS TOUR 3\KNIGHTS TOUR 3\STDAFX.CPP
C:\USERS\WOLFF\DOCUMENTS\VISUAL STUDIO 2013\PROJECTS\KNIGHTS TOUR 3\KNIGHTS TOUR 3\DEBUG\VC120.PDB
