^C:\USERS\WOLFF\DOCUMENTS\VISUAL STUDIO 2013\PROJECTS\KNIGHTS TOUR 3\KNIGHTS TOUR 3\DEBUG\KNIGHTS TOUR 3.OBJ|C:\USERS\WOLFF\DOCUMENTS\VISUAL STUDIO 2013\PROJECTS\KNIGHTS TOUR 3\KNIGHTS TOUR 3\DEBUG\STDAFX.OBJ
C:\USERS\WOLFF\DOCUMENTS\VISUAL STUDIO 2013\PROJECTS\KNIGHTS TOUR 3\DEBUG\KNIGHTS TOUR 3.ILK
C:\USERS\WOLFF\DOCUMENTS\VISUAL STUDIO 2013\PROJECTS\KNIGHTS TOUR 3\DEBUG\KNIGHTS TOUR 3.EXE
C:\USERS\WOLFF\DOCUMENTS\VISUAL STUDIO 2013\PROJECTS\KNIGHTS TOUR 3\DEBUG\KNIGHTS TOUR 3.PDB
